Solutions | R for Conditional Process Analysis
…
2f. Create a new variable in which you store the mass in gram. Add it to the data frame.

Solution:

starwars_data <- starwars_data %>%
  mutate(gr_mass = mass*1000)

starwars_data %>% 
  select(name, species, mass, gr_mass)

## # A tibble: 87 x 4
##    name               species  mass gr_mass
##    <chr>              <chr>   <dbl>   <dbl>
##  1 Luke Skywalker     Human      77   77000
##  2 C-3PO              Droid      75   75000
##  3 R2-D2              Droid      32   32000
##  4 Darth Vader        Human     136  136000
##  5 Leia Organa        Human      49   49000
##  6 Owen Lars          Human     120  120000
##  7 Beru Whitesun lars Human      75   75000
##  8 R5-D4              Droid      32   32000
##  9 Biggs Darklighter  Human      84   84000
## 10 Obi-Wan Kenobi     Human      77   77000
## # ... with 77 more rows
